Lab_4/simulation/qsim/Lab_4.msim.vcd
$comment
	File created using the following command:
		vcd file Lab_4.msim.vcd -direction
$end
$date
	Thu Oct 15 14:29:28 2020
$end
$version
	ModelSim Version 10.1d
$end
$timescale
	1ps
$end
$scope module Lab_4_vlg_vec_tst $end
$var reg 3 ! A [2:0] $end
$var reg 3 " B [2:0] $end
$var reg 1 # i_clk $end
$var wire 1 $ led_lib [6] $end
$var wire 1 % led_lib [5] $end
$var wire 1 & led_lib [4] $end
$var wire 1 ' led_lib [3] $end
$var wire 1 ( led_lib [2] $end
$var wire 1 ) led_lib [1] $end
$var wire 1 * led_lib [0] $end
$var wire 1 + led_rom [6] $end
$var wire 1 , led_rom [5] $end
$var wire 1 - led_rom [4] $end
$var wire 1 . led_rom [3] $end
$var wire 1 / led_rom [2] $end
$var wire 1 0 led_rom [1] $end
$var wire 1 1 led_rom [0] $end
$var wire 1 2 res_lib [2] $end
$var wire 1 3 res_lib [1] $end
$var wire 1 4 res_lib [0] $end
$var wire 1 5 res_rom [2] $end
$var wire 1 6 res_rom [1] $end
$var wire 1 7 res_rom [0] $end
$var wire 1 8 sampler $end
$scope module i1 $end
$var wire 1 9 gnd $end
$var wire 1 : vcc $end
$var wire 1 ; unknown $end
$var tri1 1 < devclrn $end
$var tri1 1 = devpor $end
$var tri1 1 > devoe $end
$var wire 1 ? led_lib[0]~output_o $end
$var wire 1 @ led_lib[1]~output_o $end
$var wire 1 A led_lib[2]~output_o $end
$var wire 1 B led_lib[3]~output_o $end
$var wire 1 C led_lib[4]~output_o $end
$var wire 1 D led_lib[5]~output_o $end
$var wire 1 E led_lib[6]~output_o $end
$var wire 1 F led_rom[0]~output_o $end
$var wire 1 G led_rom[1]~output_o $end
$var wire 1 H led_rom[2]~output_o $end
$var wire 1 I led_rom[3]~output_o $end
$var wire 1 J led_rom[4]~output_o $end
$var wire 1 K led_rom[5]~output_o $end
$var wire 1 L led_rom[6]~output_o $end
$var wire 1 M res_lib[0]~output_o $end
$var wire 1 N res_lib[1]~output_o $end
$var wire 1 O res_lib[2]~output_o $end
$var wire 1 P res_rom[0]~output_o $end
$var wire 1 Q res_rom[1]~output_o $end
$var wire 1 R res_rom[2]~output_o $end
$var wire 1 S A[2]~input_o $end
$var wire 1 T B[2]~input_o $end
$var wire 1 U res_lib~2_combout $end
$var wire 1 V A[0]~input_o $end
$var wire 1 W B[0]~input_o $end
$var wire 1 X res_lib~1_combout $end
$var wire 1 Y B[1]~input_o $end
$var wire 1 Z A[1]~input_o $end
$var wire 1 [ seg_lib|WideOr6~6_combout $end
$var wire 1 \ seg_lib|WideOr5~6_combout $end
$var wire 1 ] seg_lib|Decoder0~6_combout $end
$var wire 1 ^ res_lib~0_combout $end
$var wire 1 _ seg_lib|WideOr3~6_combout $end
$var wire 1 ` seg_lib|WideOr2~6_combout $end
$var wire 1 a seg_lib|WideOr1~6_combout $end
$var wire 1 b seg_lib|WideOr0~6_combout $end
$var wire 1 c i_clk~input_o $end
$var wire 1 d i_clk~inputclkctrl_outclk $end
$var wire 1 e seg_rom|WideOr6~0_combout $end
$var wire 1 f seg_rom|WideOr5~0_combout $end
$var wire 1 g seg_rom|Decoder0~0_combout $end
$var wire 1 h seg_rom|WideOr3~0_combout $end
$var wire 1 i seg_rom|WideOr2~0_combout $end
$var wire 1 j seg_rom|WideOr1~0_combout $end
$var wire 1 k seg_rom|WideOr0~0_combout $end
$var wire 1 l rm|altsyncram_component|auto_generated|q_a [2] $end
$var wire 1 m rm|altsyncram_component|auto_generated|q_a [1] $end
$var wire 1 n rm|altsyncram_component|auto_generated|q_a [0] $end
$var wire 1 o rm|altsyncram_component|auto_generated|ram_block1a0_PORTADATAOUT_bus [17] $end
$var wire 1 p rm|altsyncram_component|auto_generated|ram_block1a0_PORTADATAOUT_bus [16] $end
$var wire 1 q rm|altsyncram_component|auto_generated|ram_block1a0_PORTADATAOUT_bus [15] $end
$var wire 1 r rm|altsyncram_component|auto_generated|ram_block1a0_PORTADATAOUT_bus [14] $end
$var wire 1 s rm|altsyncram_component|auto_generated|ram_block1a0_PORTADATAOUT_bus [13] $end
$var wire 1 t rm|altsyncram_component|auto_generated|ram_block1a0_PORTADATAOUT_bus [12] $end
$var wire 1 u rm|altsyncram_component|auto_generated|ram_block1a0_PORTADATAOUT_bus [11] $end
$var wire 1 v rm|altsyncram_component|auto_generated|ram_block1a0_PORTADATAOUT_bus [10] $end
$var wire 1 w rm|altsyncram_component|auto_generated|ram_block1a0_PORTADATAOUT_bus [9] $end
$var wire 1 x rm|altsyncram_component|auto_generated|ram_block1a0_PORTADATAOUT_bus [8] $end
$var wire 1 y rm|altsyncram_component|auto_generated|ram_block1a0_PORTADATAOUT_bus [7] $end
$var wire 1 z rm|altsyncram_component|auto_generated|ram_block1a0_PORTADATAOUT_bus [6] $end
$var wire 1 { rm|altsyncram_component|auto_generated|ram_block1a0_PORTADATAOUT_bus [5] $end
$var wire 1 | rm|altsyncram_component|auto_generated|ram_block1a0_PORTADATAOUT_bus [4] $end
$var wire 1 } rm|altsyncram_component|auto_generated|ram_block1a0_PORTADATAOUT_bus [3] $end
$var wire 1 ~ rm|altsyncram_component|auto_generated|ram_block1a0_PORTADATAOUT_bus [2] $end
$var wire 1 !! rm|altsyncram_component|auto_generated|ram_block1a0_PORTADATAOUT_bus [1] $end
$var wire 1 "! rm|altsyncram_component|auto_generated|ram_block1a0_PORTADATAOUT_bus [0] $end
$upscope $end
$upscope $end
$enddefinitions $end
#0
$dumpvars
b0 !
b0 "
0#
1*
1)
1(
0'
0&
0%
0$
11
10
1/
1.
1-
1,
0+
14
13
12
07
06
05
x8
09
1:
x;
1<
1=
1>
1?
1@
1A
0B
0C
0D
0E
1F
1G
1H
1I
1J
1K
0L
1M
1N
1O
0P
0Q
0R
0S
0T
1U
0V
0W
1X
0Y
0Z
1[
1\
0]
1^
1_
1`
1a
0b
0c
0d
1e
1f
0g
0h
0i
0j
0k
0n
0m
0l
0"!
0!!
0~
0}
0|
0{
0z
0y
0x
0w
0v
0u
0t
0s
0r
0q
0p
0o
$end
#10000
1#
1c
1d
08
#20000
0#
0c
0d
18
#30000
1#
1c
1d
08
1"!
1!!
1~
1n
1m
1l
1j
1i
1h
1P
1Q
1R
17
16
15
0K
0J
0I
0,
0-
0.
#40000
0#
0c
0d
18
#50000
b1 !
1#
1V
1c
1d
08
0`
0_
0X
0a
1C
1B
0M
1&
1'
04
1b
0\
1D
1E
0@
1%
1$
0)
#60000
0#
0c
0d
18
#70000
1#
1c
1d
08
0"!
0n
0j
0i
0h
0P
07
1k
0f
1K
1J
1I
1L
0G
1,
1-
1.
1+
00
#80000
0#
0c
0d
18
#90000
1#
1c
1d
08
#100000
b11 !
b10 !
0#
0V
1Z
0c
0d
18
1`
1_
1X
0^
1\
0[
0_
0C
0B
1M
0N
1@
0?
0&
0'
14
03
1)
0*
0\
1[
1B
0@
1?
1'
0)
1*
#110000
1#
1c
1d
08
#120000
0#
0c
0d
18
#130000
1#
1c
1d
08
1"!
0!!
1n
0m
1i
1P
0Q
17
06
0J
0-
#140000
0#
0c
0d
18
#150000
b11 !
1#
1V
1c
1d
08
1_
0X
0B
0M
0'
04
1\
0[
1@
0?
1)
0*
#160000
0#
0c
0d
18
#170000
1#
1c
1d
08
0"!
0n
1h
0P
07
1f
0e
0I
1G
0F
0.
10
01
#180000
0#
0c
0d
18
#190000
1#
1c
1d
08
#200000
b111 !
b101 !
b100 !
0#
0V
0Z
1S
0c
0d
18
0_
1X
1^
0\
1[
0U
1a
1B
1M
1N
0@
1?
0O
1'
14
13
0)
1*
02
1\
0D
1@
0%
1)
#210000
1#
1c
1d
08
#220000
0#
0c
0d
18
#230000
1#
1c
1d
08
1"!
1!!
0~
1n
1m
0l
1j
0h
1P
1Q
0R
17
16
05
1e
0K
1I
1F
0,
1.
11
#240000
0#
0c
0d
18
#250000
b101 !
1#
1V
1c
1d
08
0`
0X
1]
1C
0M
1&
04
0A
0(
#260000
0#
0c
0d
18
#270000
1#
1c
1d
08
0"!
0n
0i
1g
0P
07
1J
0H
1-
0/
#280000
0#
0c
0d
18
#290000
1#
1c
1d
08
#300000
b111 !
b110 !
0#
0V
1Z
0c
0d
18
1`
0a
0]
1X
0b
0^
1a
1_
0C
1D
1A
1M
0E
0N
0&
1%
1(
14
0$
03
0[
0D
0B
0?
0%
0'
0*
#310000
1#
1c
1d
08
#320000
0#
0c
0d
18
#330000
1#
1c
1d
08
1"!
0!!
1n
0m
1i
1h
0g
1P
0Q
17
06
0k
0e
0J
0I
1H
0L
0F
0-
0.
1/
0+
01
#340000
0#
0c
0d
18
#350000
b111 !
1#
1V
1c
1d
08
0`
0_
0X
0a
1C
1B
0M
1&
1'
04
1[
1D
1?
1%
1*
#360000
0#
0c
0d
18
#370000
1#
1c
1d
08
0"!
0n
0j
0i
0h
0P
07
1e
1K
1J
1I
1F
1,
1-
1.
11
#380000
0#
0c
0d
18
#390000
1#
1c
1d
08
#400000
b1 "
b11 !
b1 !
b0 !
0#
0V
0Z
0S
1W
0c
0d
18
1`
1_
1a
1]
1X
1b
1^
1U
0]
0C
0B
0D
0A
1M
1E
1N
1O
0&
0'
0%
0(
14
1$
13
12
0b
1A
0E
1(
0$
#410000
1#
1c
1d
08
#420000
0#
0c
0d
18
#430000
1#
1c
1d
08
1"!
1!!
1~
1n
1m
1l
1j
1i
1h
1P
1Q
1R
17
16
15
0K
0J
0I
0,
0-
0.
#440000
0#
0c
0d
18
#450000
b1 !
1#
1V
1c
1d
08
#460000
0#
0c
0d
18
#470000
1#
1c
1d
08
#480000
0#
0c
0d
18
#490000
1#
1c
1d
08
#500000
b11 !
b10 !
0#
0V
1Z
0c
0d
18
0a
1b
0^
0\
0_
1D
1E
0N
0@
1%
1$
03
0)
1B
1'
#510000
1#
1c
1d
08
#520000
0#
0c
0d
18
#530000
1#
1c
1d
08
0!!
0m
0j
0h
0Q
06
1k
0f
1K
1I
1L
0G
1,
1.
1+
00
#540000
0#
0c
0d
18
#550000
b11 !
1#
1V
1c
1d
08
#560000
0#
0c
0d
18
#570000
1#
1c
1d
08
#580000
0#
0c
0d
18
#590000
1#
1c
1d
08
#600000
b111 !
b101 !
b100 !
0#
0V
0Z
1S
0c
0d
18
1a
0b
1^
1\
0U
0D
0E
1N
1@
0O
0%
0$
13
1)
02
1b
1E
1$
#610000
1#
1c
1d
08
#620000
0#
0c
0d
18
#630000
1#
1c
1d
08
1!!
0~
1m
0l
1j
1Q
0R
16
05
1f
0K
1G
0,
10
#640000
0#
0c
0d
18
#650000
b101 !
1#
1V
1c
1d
08
#660000
0#
0c
0d
18
#670000
1#
1c
1d
08
#680000
0#
0c
0d
18
#690000
1#
1c
1d
08
#700000
b111 !
b110 !
0#
0V
1Z
0c
0d
18
0b
0^
0[
1_
0E
0N
0?
0$
03
0*
0B
0'
#710000
1#
1c
1d
08
#720000
0#
0c
0d
18
#730000
1#
1c
1d
08
0!!
0m
1h
0Q
06
0k
0e
0I
0L
0F
0.
0+
01
#740000
0#
0c
0d
18
#750000
b111 !
1#
1V
1c
1d
08
#760000
0#
0c
0d
18
#770000
1#
1c
1d
08
#780000
0#
0c
0d
18
#790000
1#
1c
1d
08
#800000
b11 "
b10 "
b11 !
b1 !
b0 !
0#
0V
0Z
0S
0W
1Y
0c
0d
18
1b
1^
1[
1U
1E
1N
1?
1O
1$
13
1*
12
0b
0E
0$
#810000
1#
1c
1d
08
#820000
0#
0c
0d
18
#830000
1#
1c
1d
08
1!!
1~
1m
1l
1Q
1R
16
15
1e
1F
11
#840000
0#
0c
0d
18
#850000
b1 !
1#
1V
1c
1d
08
0`
0_
0X
0a
1C
1B
0M
1&
1'
04
1b
0\
1D
1E
0@
1%
1$
0)
#860000
0#
0c
0d
18
#870000
1#
1c
1d
08
0"!
0n
0j
0i
0h
0P
07
1k
0f
1K
1J
1I
1L
0G
1,
1-
1.
1+
00
#880000
0#
0c
0d
18
#890000
1#
1c
1d
08
#900000
b11 !
b10 !
0#
0V
1Z
0c
0d
18
1`
1_
1X
1a
0C
0B
1M
0&
0'
14
0b
1\
0D
0E
1@
0%
0$
1)
#910000
1#
1c
1d
08
#920000
0#
0c
0d
18
#930000
1#
1c
1d
08
1"!
1n
1j
1i
1h
1P
17
0k
1f
0K
0J
0I
0L
1G
0,
0-
0.
0+
10
#940000
0#
0c
0d
18
#950000
b11 !
1#
1V
1c
1d
08
0`
0_
0X
0a
1C
1B
0M
1&
1'
04
1b
0\
1D
1E
0@
1%
1$
0)
#960000
0#
0c
0d
18
#970000
1#
1c
1d
08
0"!
0n
0j
0i
0h
0P
07
1k
0f
1K
1J
1I
1L
0G
1,
1-
1.
1+
00
#980000
0#
0c
0d
18
#990000
1#
1c
1d
08
#1000000
b111 !
b101 !
b100 !
0#
0V
0Z
1S
0c
0d
18
1`
1_
1X
0U
1a
0_
0C
0B
1M
0O
0&
0'
14
02
1\
0D
1B
1@
0%
1'
1)
#1010000
1#
1c
1d
08
#1020000
0#
0c
0d
18
#1030000
1#
1c
1d
08
1"!
0~
1n
0l
1j
1i
1P
0R
17
05
1f
0K
0J
1G
0,
0-
10
#1040000
0#
0c
0d
18
#1050000
b101 !
1#
1V
1c
1d
08
0`
0X
1]
1C
0M
1&
04
0A
0(
#1060000
0#
0c
0d
18
#1070000
1#
1c
1d
08
0"!
0n
0i
1g
0P
07
1J
0H
1-
0/
#1080000
0#
0c
0d
18
#1090000
1#
1c
1d
08
#1100000
b111 !
b110 !
0#
0V
1Z
0c
0d
18
1`
1X
0]
0C
1M
0&
14
1A
1(
#1110000
1#
1c
1d
08
#1120000
0#
0c
0d
18
#1130000
1#
1c
1d
08
1"!
1n
1i
0g
1P
17
0J
1H
0-
1/
#1140000
0#
0c
0d
18
#1150000
b111 !
1#
1V
1c
1d
08
0`
0X
1]
1C
0M
1&
04
0A
0(
#1160000
0#
0c
0d
18
#1170000
1#
1c
1d
08
0"!
0n
0i
1g
0P
07
1J
0H
1-
0/
#1180000
0#
0c
0d
18
#1190000
1#
1c
1d
08
#1200000
b11 "
b11 !
b1 !
b0 !
0#
0V
0Z
0S
1W
0c
0d
18
1`
1X
1U
0]
1_
0C
1M
1O
0&
14
12
0b
1A
0B
0E
1(
0'
0$
#1210000
1#
1c
1d
08
#1220000
0#
0c
0d
18
#1230000
1#
1c
1d
08
1"!
1~
1n
1l
1i
1h
0g
1P
1R
17
15
0k
0J
0I
1H
0L
0-
0.
1/
0+
#1240000
0#
0c
0d
18
#1250000
b1 !
1#
1V
1c
1d
08
#1260000
0#
0c
0d
18
#1270000
1#
1c
1d
08
#1280000
0#
0c
0d
18
#1290000
1#
1c
1d
08
#1300000
b11 !
b10 !
0#
0V
1Z
0c
0d
18
#1310000
1#
1c
1d
08
#1320000
0#
0c
0d
18
#1330000
1#
1c
1d
08
#1340000
0#
0c
0d
18
#1350000
b11 !
1#
1V
1c
1d
08
#1360000
0#
0c
0d
18
#1370000
1#
1c
1d
08
#1380000
0#
0c
0d
18
#1390000
1#
1c
1d
08
#1400000
b111 !
b101 !
b100 !
0#
0V
0Z
1S
0c
0d
18
0U
0_
0O
02
1b
1B
1E
1'
1$
#1410000
1#
1c
1d
08
#1420000
0#
0c
0d
18
#1430000
1#
1c
1d
08
0~
0l
0h
0R
05
1k
1I
1L
1.
1+
#1440000
0#
0c
0d
18
#1450000
b101 !
1#
1V
1c
1d
08
#1460000
0#
0c
0d
18
#1470000
1#
1c
1d
08
#1480000
0#
0c
0d
18
#1490000
1#
1c
1d
08
#1500000
b111 !
b110 !
0#
0V
1Z
0c
0d
18
#1510000
1#
1c
1d
08
#1520000
0#
0c
0d
18
#1530000
1#
1c
1d
08
#1540000
0#
0c
0d
18
#1550000
b111 !
1#
1V
1c
1d
08
#1560000
0#
0c
0d
18
#1570000
1#
1c
1d
08
#1580000
0#
0c
0d
18
#1590000
1#
1c
1d
08
#1600000
b111 "
b101 "
b100 "
b11 !
b1 !
b0 !
0#
0V
0Z
0S
0W
0Y
1T
0c
0d
18
1U
1_
1O
12
0b
0B
0E
0'
0$
#1610000
1#
1c
1d
08
#1620000
0#
0c
0d
18
#1630000
1#
1c
1d
08
1~
1l
1h
1R
15
0k
0I
0L
0.
0+
#1640000
0#
0c
0d
18
#1650000
b1 !
1#
1V
1c
1d
08
0`
0_
0X
0a
1C
1B
0M
1&
1'
04
1b
0\
1D
1E
0@
1%
1$
0)
#1660000
0#
0c
0d
18
#1670000
1#
1c
1d
08
0"!
0n
0j
0i
0h
0P
07
1k
0f
1K
1J
1I
1L
0G
1,
1-
1.
1+
00
#1680000
0#
0c
0d
18
#1690000
1#
1c
1d
08
#1700000
b11 !
b10 !
0#
0V
1Z
0c
0d
18
1`
1_
1X
0^
1\
0[
0_
0C
0B
1M
0N
1@
0?
0&
0'
14
03
1)
0*
0\
1[
1B
0@
1?
1'
0)
1*
#1710000
1#
1c
1d
08
#1720000
0#
0c
0d
18
#1730000
1#
1c
1d
08
1"!
0!!
1n
0m
1i
1P
0Q
17
06
0J
0-
#1740000
0#
0c
0d
18
#1750000
b11 !
1#
1V
1c
1d
08
1_
0X
0B
0M
0'
04
1\
0[
1@
0?
1)
0*
#1760000
0#
0c
0d
18
#1770000
1#
1c
1d
08
0"!
0n
1h
0P
07
1f
0e
0I
1G
0F
0.
10
01
#1780000
0#
0c
0d
18
#1790000
1#
1c
1d
08
#1800000
b111 !
b101 !
b100 !
0#
0V
0Z
1S
0c
0d
18
0_
1X
1^
0\
1[
1a
1_
1B
1M
1N
0@
1?
1'
14
13
0)
1*
0b
1\
0D
0B
0E
1@
0%
0'
0$
1)
#1810000
1#
1c
1d
08
#1820000
0#
0c
0d
18
#1830000
1#
1c
1d
08
1"!
1!!
1n
1m
1j
1P
1Q
17
16
0k
1e
0K
0L
1F
0,
0+
11
#1840000
0#
0c
0d
18
#1850000
b101 !
1#
1V
1c
1d
08
0`
0_
0X
0a
1C
1B
0M
1&
1'
04
1b
0\
1D
1E
0@
1%
1$
0)
#1860000
0#
0c
0d
18
#1870000
1#
1c
1d
08
0"!
0n
0j
0i
0h
0P
07
1k
0f
1K
1J
1I
1L
0G
1,
1-
1.
1+
00
#1880000
0#
0c
0d
18
#1890000
1#
1c
1d
08
#1900000
b111 !
b110 !
0#
0V
1Z
0c
0d
18
1`
1_
1X
0^
1\
0[
0_
0C
0B
1M
0N
1@
0?
0&
0'
14
03
1)
0*
0\
1[
1B
0@
1?
1'
0)
1*
#1910000
1#
1c
1d
08
#1920000
0#
0c
0d
18
#1930000
1#
1c
1d
08
1"!
0!!
1n
0m
1i
1P
0Q
17
06
0J
0-
#1940000
0#
0c
0d
18
#1950000
b111 !
1#
1V
1c
1d
08
1_
0X
0B
0M
0'
04
1\
0[
1@
0?
1)
0*
#1960000
0#
0c
0d
18
#1970000
1#
1c
1d
08
0"!
0n
1h
0P
07
1f
0e
0I
1G
0F
0.
10
01
#1980000
0#
0c
0d
18
#1990000
1#
1c
1d
08
#2000000
b101 "
b11 !
b1 !
b0 !
0#
0V
0Z
0S
1W
0c
0d
18
0_
1X
1^
0\
1[
1a
1_
1B
1M
1N
0@
1?
1'
14
13
0)
1*
0b
1\
0D
0B
0E
1@
0%
0'
0$
1)
#2010000
1#
1c
1d
08
#2020000
0#
0c
0d
18
#2030000
1#
1c
1d
08
1"!
1!!
1n
1m
1j
1P
1Q
17
16
0k
1e
0K
0L
1F
0,
0+
11
#2040000
0#
0c
0d
18
#2050000
b1 !
1#
1V
1c
1d
08
#2060000
0#
0c
0d
18
#2070000
1#
1c
1d
08
#2080000
0#
0c
0d
18
#2090000
1#
1c
1d
08
#2100000
b11 !
b10 !
0#
0V
1Z
0c
0d
18
0a
1b
0^
0\
0_
1D
1E
0N
0@
1%
1$
03
0)
1B
1'
#2110000
1#
1c
1d
08
#2120000
0#
0c
0d
18
#2130000
1#
1c
1d
08
0!!
0m
0j
0h
0Q
06
1k
0f
1K
1I
1L
0G
1,
1.
1+
00
#2140000
0#
0c
0d
18
#2150000
b11 !
1#
1V
1c
1d
08
#2160000
0#
0c
0d
18
#2170000
1#
1c
1d
08
#2180000
0#
0c
0d
18
#2190000
1#
1c
1d
08
#2200000
b111 !
b101 !
b100 !
0#
0V
0Z
1S
0c
0d
18
1a
0b
1^
1\
1_
0D
0E
1N
1@
0%
0$
13
1)
0B
0'
#2210000
1#
1c
1d
08
#2220000
0#
0c
0d
18
#2230000
1#
1c
1d
08
1!!
1m
1j
1h
1Q
16
0k
1f
0K
0I
0L
1G
0,
0.
0+
10
#2240000
0#
0c
0d
18
#2250000
b101 !
1#
1V
1c
1d
08
#2260000
0#
0c
0d
18
#2270000
1#
1c
1d
08
#2280000
0#
0c
0d
18
#2290000
1#
1c
1d
08
#2300000
b111 !
b110 !
0#
0V
1Z
0c
0d
18
0a
1b
0^
0\
0_
1D
1E
0N
0@
1%
1$
03
0)
1B
1'
#2310000
1#
1c
1d
08
#2320000
0#
0c
0d
18
#2330000
1#
1c
1d
08
0!!
0m
0j
0h
0Q
06
1k
0f
1K
1I
1L
0G
1,
1.
1+
00
#2340000
0#
0c
0d
18
#2350000
b111 !
1#
1V
1c
1d
08
#2360000
0#
0c
0d
18
#2370000
1#
1c
1d
08
#2380000
0#
0c
0d
18
#2390000
1#
1c
1d
08
#2400000
b111 "
b110 "
b11 !
b1 !
b0 !
0#
0V
0Z
0S
0W
1Y
0c
0d
18
1a
0b
1^
1\
1_
0D
0E
1N
1@
0%
0$
13
1)
0B
0'
#2410000
1#
1c
1d
08
#2420000
0#
0c
0d
18
#2430000
1#
1c
1d
08
1!!
1m
1j
1h
1Q
16
0k
1f
0K
0I
0L
1G
0,
0.
0+
10
#2440000
0#
0c
0d
18
#2450000
b1 !
1#
1V
1c
1d
08
0`
0_
0X
0a
1C
1B
0M
1&
1'
04
1b
0\
1D
1E
0@
1%
1$
0)
#2460000
0#
0c
0d
18
#2470000
1#
1c
1d
08
0"!
0n
0j
0i
0h
0P
07
1k
0f
1K
1J
1I
1L
0G
1,
1-
1.
1+
00
#2480000
0#
0c
0d
18
#2490000
1#
1c
1d
08
#2500000
b11 !
b10 !
0#
0V
1Z
0c
0d
18
1`
1_
1X
1a
0C
0B
1M
0&
0'
14
0b
1\
0D
0E
1@
0%
0$
1)
#2510000
1#
1c
1d
08
#2520000
0#
0c
0d
18
#2530000
1#
1c
1d
08
1"!
1n
1j
1i
1h
1P
17
0k
1f
0K
0J
0I
0L
1G
0,
0-
0.
0+
10
#2540000
0#
0c
0d
18
#2550000
b11 !
1#
1V
1c
1d
08
0`
0_
0X
0a
1C
1B
0M
1&
1'
04
1b
0\
1D
1E
0@
1%
1$
0)
#2560000
0#
0c
0d
18
#2570000
1#
1c
1d
08
0"!
0n
0j
0i
0h
0P
07
1k
0f
1K
1J
1I
1L
0G
1,
1-
1.
1+
00
#2580000
0#
0c
0d
18
#2590000
1#
1c
1d
08
#2600000
b111 !
b101 !
b100 !
0#
0V
0Z
1S
0c
0d
18
1`
1_
1X
1a
0C
0B
1M
0&
0'
14
0b
1\
0D
0E
1@
0%
0$
1)
#2610000
1#
1c
1d
08
#2620000
0#
0c
0d
18
#2630000
1#
1c
1d
08
1"!
1n
1j
1i
1h
1P
17
0k
1f
0K
0J
0I
0L
1G
0,
0-
0.
0+
10
#2640000
0#
0c
0d
18
#2650000
b101 !
1#
1V
1c
1d
08
0`
0_
0X
0a
1C
1B
0M
1&
1'
04
1b
0\
1D
1E
0@
1%
1$
0)
#2660000
0#
0c
0d
18
#2670000
1#
1c
1d
08
0"!
0n
0j
0i
0h
0P
07
1k
0f
1K
1J
1I
1L
0G
1,
1-
1.
1+
00
#2680000
0#
0c
0d
18
#2690000
1#
1c
1d
08
#2700000
b111 !
b110 !
0#
0V
1Z
0c
0d
18
1`
1_
1X
1a
0C
0B
1M
0&
0'
14
0b
1\
0D
0E
1@
0%
0$
1)
#2710000
1#
1c
1d
08
#2720000
0#
0c
0d
18
#2730000
1#
1c
1d
08
1"!
1n
1j
1i
1h
1P
17
0k
1f
0K
0J
0I
0L
1G
0,
0-
0.
0+
10
#2740000
0#
0c
0d
18
#2750000
b111 !
1#
1V
1c
1d
08
0`
0_
0X
0a
1C
1B
0M
1&
1'
04
1b
0\
1D
1E
0@
1%
1$
0)
#2760000
0#
0c
0d
18
#2770000
1#
1c
1d
08
0"!
0n
0j
0i
0h
0P
07
1k
0f
1K
1J
1I
1L
0G
1,
1-
1.
1+
00
#2780000
0#
0c
0d
18
#2790000
1#
1c
1d
08
#2800000
b111 "
b11 !
b1 !
b0 !
0#
0V
0Z
0S
1W
0c
0d
18
1`
1_
1X
1a
0C
0B
1M
0&
0'
14
0b
1\
0D
0E
1@
0%
0$
1)
#2810000
1#
1c
1d
08
#2820000
0#
0c
0d
18
#2830000
1#
1c
1d
08
1"!
1n
1j
1i
1h
1P
17
0k
1f
0K
0J
0I
0L
1G
0,
0-
0.
0+
10
#2840000
0#
0c
0d
18
#2850000
b1 !
1#
1V
1c
1d
08
#2860000
0#
0c
0d
18
#2870000
1#
1c
1d
08
#2880000
0#
0c
0d
18
#2890000
1#
1c
1d
08
#2900000
b11 !
b10 !
0#
0V
1Z
0c
0d
18
#2910000
1#
1c
1d
08
#2920000
0#
0c
0d
18
#2930000
1#
1c
1d
08
#2940000
0#
0c
0d
18
#2950000
b11 !
1#
1V
1c
1d
08
#2960000
0#
0c
0d
18
#2970000
1#
1c
1d
08
#2980000
0#
0c
0d
18
#2990000
1#
1c
1d
08
#3000000
b111 !
b101 !
b100 !
0#
0V
0Z
1S
0c
0d
18
#3010000
1#
1c
1d
08
#3020000
0#
0c
0d
18
#3030000
1#
1c
1d
08
#3040000
0#
0c
0d
18
#3050000
b101 !
1#
1V
1c
1d
08
#3060000
0#
0c
0d
18
#3070000
1#
1c
1d
08
#3080000
0#
0c
0d
18
#3090000
1#
1c
1d
08
#3100000
b111 !
b110 !
0#
0V
1Z
0c
0d
18
#3110000
1#
1c
1d
08
#3120000
0#
0c
0d
18
#3130000
1#
1c
1d
08
#3140000
0#
0c
0d
18
#3150000
b111 !
1#
1V
1c
1d
08
#3160000
0#
0c
0d
18
#3170000
1#
1c
1d
08
#3180000
0#
0c
0d
18
#3190000
1#
1c
1d
08
#3200000
b11 "
b1 "
b0 "
b11 !
b1 !
b0 !
0#
0V
0Z
0S
0W
0Y
0T
0c
0d
18
#3210000
1#
1c
1d
08
#3220000
0#
0c
0d
18
#3230000
1#
1c
1d
08
#3240000
0#
0c
0d
18
#3250000
b1 !
1#
1V
1c
1d
08
0`
0_
0X
0a
1C
1B
0M
1&
1'
04
1b
0\
1D
1E
0@
1%
1$
0)
#3260000
0#
0c
0d
18
#3270000
1#
1c
1d
08
0"!
0n
0j
0i
0h
0P
07
1k
0f
1K
1J
1I
1L
0G
1,
1-
1.
1+
00
#3280000
0#
0c
0d
18
#3290000
1#
1c
1d
08
#3300000
b11 !
b10 !
0#
0V
1Z
0c
0d
18
1`
1_
1X
0^
1\
0[
0_
0C
0B
1M
0N
1@
0?
0&
0'
14
03
1)
0*
0\
1[
1B
0@
1?
1'
0)
1*
#3310000
1#
1c
1d
08
#3320000
0#
0c
0d
18
#3330000
1#
1c
1d
08
1"!
0!!
1n
0m
1i
1P
0Q
17
06
0J
0-
#3340000
0#
0c
0d
18
#3350000
b11 !
1#
1V
1c
1d
08
1_
0X
0B
0M
0'
04
1\
0[
1@
0?
1)
0*
#3360000
0#
0c
0d
18
#3370000
1#
1c
1d
08
0"!
0n
1h
0P
07
1f
0e
0I
1G
0F
0.
10
01
#3380000
0#
0c
0d
18
#3390000
1#
1c
1d
08
#3400000
b111 !
b101 !
b100 !
0#
0V
0Z
1S
0c
0d
18
0_
1X
1^
0\
1[
0U
1a
1B
1M
1N
0@
1?
0O
1'
14
13
0)
1*
02
1\
0D
1@
0%
1)
#3410000
1#
1c
1d
08
#3420000
0#
0c
0d
18
#3430000
1#
1c
1d
08
1"!
1!!
0~
1n
1m
0l
1j
0h
1P
1Q
0R
17
16
05
1e
0K
1I
1F
0,
1.
11
#3440000
0#
0c
0d
18
#3450000
b101 !
1#
1V
1c
1d
08
0`
0X
1]
1C
0M
1&
04
0A
0(
#3460000
0#
0c
0d
18
#3470000
1#
1c
1d
08
0"!
0n
0i
1g
0P
07
1J
0H
1-
0/
#3480000
0#
0c
0d
18
#3490000
1#
1c
1d
08
#3500000
b111 !
b110 !
0#
0V
1Z
0c
0d
18
1`
0a
0]
1X
0b
0^
1a
1_
0C
1D
1A
1M
0E
0N
0&
1%
1(
14
0$
03
0[
0D
0B
0?
0%
0'
0*
#3510000
1#
1c
1d
08
#3520000
0#
0c
0d
18
#3530000
1#
1c
1d
08
1"!
0!!
1n
0m
1i
1h
0g
1P
0Q
17
06
0k
0e
0J
0I
1H
0L
0F
0-
0.
1/
0+
01
#3540000
0#
0c
0d
18
#3550000
b111 !
1#
1V
1c
1d
08
0`
0_
0X
0a
1C
1B
0M
1&
1'
04
1[
1D
1?
1%
1*
#3560000
0#
0c
0d
18
#3570000
1#
1c
1d
08
0"!
0n
0j
0i
0h
0P
07
1e
1K
1J
1I
1F
1,
1-
1.
11
#3580000
0#
0c
0d
18
#3590000
1#
1c
1d
08
#3600000
b1 "
b11 !
b1 !
b0 !
0#
0V
0Z
0S
1W
0c
0d
18
1`
1_
1a
1]
1X
1b
1^
1U
0]
0C
0B
0D
0A
1M
1E
1N
1O
0&
0'
0%
0(
14
1$
13
12
0b
1A
0E
1(
0$
#3610000
1#
1c
1d
08
#3620000
0#
0c
0d
18
