Lab_2/simulation/qsim/summ_mod_11.msim.vcd
$comment
	File created using the following command:
		vcd file summ_mod_11.msim.vcd -direction
$end
$date
	Tue Sep 29 17:24:38 2020
$end
$version
	ModelSim Version 10.1d
$end
$timescale
	1ps
$end
$scope module summ_mod_11_vlg_vec_tst $end
$var reg 1 ! i_clk $end
$var reg 1 " reset $end
$var wire 1 # lamp [2] $end
$var wire 1 $ lamp [1] $end
$var wire 1 % lamp [0] $end
$var wire 1 & lcd_hi [6] $end
$var wire 1 ' lcd_hi [5] $end
$var wire 1 ( lcd_hi [4] $end
$var wire 1 ) lcd_hi [3] $end
$var wire 1 * lcd_hi [2] $end
$var wire 1 + lcd_hi [1] $end
$var wire 1 , lcd_hi [0] $end
$var wire 1 - lcd_low [6] $end
$var wire 1 . lcd_low [5] $end
$var wire 1 / lcd_low [4] $end
$var wire 1 0 lcd_low [3] $end
$var wire 1 1 lcd_low [2] $end
$var wire 1 2 lcd_low [1] $end
$var wire 1 3 lcd_low [0] $end
$var wire 1 4 out_cnt [3] $end
$var wire 1 5 out_cnt [2] $end
$var wire 1 6 out_cnt [1] $end
$var wire 1 7 out_cnt [0] $end
$var wire 1 8 test_clk $end
$var wire 1 9 sampler $end
$scope module i1 $end
$var wire 1 : gnd $end
$var wire 1 ; vcc $end
$var wire 1 < unknown $end
$var tri1 1 = devclrn $end
$var tri1 1 > devpor $end
$var tri1 1 ? devoe $end
$var wire 1 @ gen|counter[5]~19_combout $end
$var wire 1 A i_clk~input_o $end
$var wire 1 B i_clk~inputclkctrl_outclk $end
$var wire 1 C lamp[0]~output_o $end
$var wire 1 D lamp[1]~output_o $end
$var wire 1 E lamp[2]~output_o $end
$var wire 1 F lcd_hi[0]~output_o $end
$var wire 1 G lcd_hi[1]~output_o $end
$var wire 1 H lcd_hi[2]~output_o $end
$var wire 1 I lcd_hi[3]~output_o $end
$var wire 1 J lcd_hi[4]~output_o $end
$var wire 1 K lcd_hi[5]~output_o $end
$var wire 1 L lcd_hi[6]~output_o $end
$var wire 1 M lcd_low[0]~output_o $end
$var wire 1 N lcd_low[1]~output_o $end
$var wire 1 O lcd_low[2]~output_o $end
$var wire 1 P lcd_low[3]~output_o $end
$var wire 1 Q lcd_low[4]~output_o $end
$var wire 1 R lcd_low[5]~output_o $end
$var wire 1 S lcd_low[6]~output_o $end
$var wire 1 T out_cnt[0]~output_o $end
$var wire 1 U out_cnt[1]~output_o $end
$var wire 1 V out_cnt[2]~output_o $end
$var wire 1 W out_cnt[3]~output_o $end
$var wire 1 X test_clk~output_o $end
$var wire 1 Y gen|counter[0]~9_combout $end
$var wire 1 Z gen|counter[4]~18 $end
$var wire 1 [ gen|counter[5]~20 $end
$var wire 1 \ gen|counter[6]~21_combout $end
$var wire 1 ] gen|counter[6]~22 $end
$var wire 1 ^ gen|counter[7]~23_combout $end
$var wire 1 _ gen|counter[7]~24 $end
$var wire 1 ` gen|counter[8]~25_combout $end
$var wire 1 a gen|LessThan0~1_combout $end
$var wire 1 b gen|LessThan0~2_combout $end
$var wire 1 c gen|counter[0]~10 $end
$var wire 1 d gen|counter[1]~11_combout $end
$var wire 1 e gen|counter[1]~12 $end
$var wire 1 f gen|counter[2]~13_combout $end
$var wire 1 g gen|counter[2]~14 $end
$var wire 1 h gen|counter[3]~16 $end
$var wire 1 i gen|counter[4]~17_combout $end
$var wire 1 j gen|counter[3]~15_combout $end
$var wire 1 k gen|LessThan0~0_combout $end
$var wire 1 l gen|o_clk~0_combout $end
$var wire 1 m gen|o_clk~feeder_combout $end
$var wire 1 n gen|o_clk~q $end
$var wire 1 o gen|o_clk~clkctrl_outclk $end
$var wire 1 p counter~3_combout $end
$var wire 1 q counter~5_combout $end
$var wire 1 r lamp~1_combout $end
$var wire 1 s counter~2_combout $end
$var wire 1 t Add0~0_combout $end
$var wire 1 u counter~4_combout $end
$var wire 1 v reset~input_o $end
$var wire 1 w lamp~0_combout $end
$var wire 1 x lamp[0]~reg0_q $end
$var wire 1 y lamp[1]~reg0_q $end
$var wire 1 z lamp[2]~reg0feeder_combout $end
$var wire 1 { lamp[2]~reg0_q $end
$var wire 1 | counter [3] $end
$var wire 1 } counter [2] $end
$var wire 1 ~ counter [1] $end
$var wire 1 !! counter [0] $end
$var wire 1 "! gen|counter [8] $end
$var wire 1 #! gen|counter [7] $end
$var wire 1 $! gen|counter [6] $end
$var wire 1 %! gen|counter [5] $end
$var wire 1 &! gen|counter [4] $end
$var wire 1 '! gen|counter [3] $end
$var wire 1 (! gen|counter [2] $end
$var wire 1 )! gen|counter [1] $end
$var wire 1 *! gen|counter [0] $end
$upscope $end
$upscope $end
$enddefinitions $end
#0
$dumpvars
0!
0"
0%
0$
0#
0,
0+
0*
0)
0(
0'
0&
03
02
01
00
0/
0.
0-
07
06
05
04
08
x9
0:
1;
x<
1=
1>
1?
0@
0A
0B
0C
0D
0E
0F
0G
0H
0I
0J
0K
0L
0M
0N
0O
0P
0Q
0R
0S
0T
0U
0V
0W
0X
1Y
0Z
1[
0\
0]
0^
1_
0`
1a
0b
0c
0d
1e
0f
0g
1h
0i
0j
1k
0l
0m
0n
0o
0p
0q
1r
1s
0t
0u
0v
0w
0x
0y
0z
0{
0!!
0~
0}
0|
0*!
0)!
0(!
0'!
0&!
0%!
0$!
0#!
0"!
$end
#5000
1!
1A
1B
09
1*!
1c
0Y
1d
#10000
0!
0A
0B
19
#15000
1!
1A
1B
09
1)!
0*!
0e
0d
0c
1Y
1f
1e
1d
0f
#20000
0!
0A
0B
19
#25000
1!
1A
1B
09
1*!
1c
0Y
0e
0d
1f
#30000
0!
0A
0B
19
#35000
1!
1A
1B
09
1(!
0)!
0*!
1g
0f
1e
1d
0c
1Y
1j
0g
1f
0d
0j
#40000
0!
0A
0B
19
#45000
1!
1A
1B
09
1*!
1c
0Y
1d
#50000
0!
0A
0B
19
#55000
1!
1A
1B
09
1)!
0*!
0e
0d
0c
1Y
1g
0f
1e
1d
1j
0g
1f
0j
#60000
0!
0A
0B
19
#65000
1!
1A
1B
09
1*!
1c
0Y
0e
0d
1g
0f
1j
#70000
0!
0A
0B
19
#75000
1!
1A
1B
09
1'!
0(!
0)!
0*!
0h
0j
0g
1f
1e
1d
0c
1Y
1i
1h
1j
0f
0d
0i
#80000
0!
0A
0B
19
#85000
1!
1A
1B
09
1*!
1c
0Y
1d
#90000
0!
0A
0B
19
#95000
1!
1A
1B
09
1)!
0*!
0e
0d
0c
1Y
1f
1e
1d
0f
#100000
0!
0A
0B
19
#105000
1!
1A
1B
09
1*!
1c
0Y
0e
0d
1f
#110000
0!
0A
0B
19
#115000
1!
1A
1B
09
1(!
0)!
0*!
1g
0f
1e
1d
0c
1Y
0h
0j
0g
1f
0d
1i
1h
1j
0i
#120000
0!
0A
0B
19
#125000
1!
1A
1B
09
1*!
1c
0Y
1d
#130000
0!
0A
0B
19
#135000
1!
1A
1B
09
1)!
0*!
0e
0d
0c
1Y
1g
0f
1e
1d
0h
0j
0g
1f
1i
1h
1j
0i
#140000
0!
0A
0B
19
#145000
1!
1A
1B
09
1*!
1c
0Y
0e
0d
1g
0f
0h
0j
1i
#150000
0!
0A
0B
19
#155000
1!
1A
1B
09
0'!
1&!
0(!
0)!
0*!
1h
1j
1Z
0i
0g
1f
1e
1d
0c
1Y
0Z
1i
1@
0j
0f
0d
0@
#160000
0!
0A
0B
19
#165000
1!
1A
1B
09
1*!
1c
0Y
1d
#170000
0!
0A
0B
19
#175000
1!
1A
1B
09
1)!
0*!
0k
0e
0d
0c
1Y
1f
1e
1d
0f
#180000
0!
0A
0B
19
#185000
1!
1A
1B
09
1*!
1c
0Y
0e
0d
1f
#190000
0!
0A
0B
19
#195000
1!
1A
1B
09
1(!
0)!
0*!
1g
0f
1e
1d
0c
1Y
1j
0g
1f
0d
0j
#200000
0!
0A
0B
19
#205000
1!
1A
1B
09
1*!
1c
0Y
1d
#210000
0!
0A
0B
19
#215000
1!
1A
1B
09
1)!
0*!
0e
0d
0c
1Y
1g
0f
1e
1d
1j
0g
1f
0j
#220000
0!
0A
0B
19
#225000
1!
1A
1B
09
1*!
1c
0Y
0e
0d
1g
0f
1j
#230000
0!
0A
0B
19
#235000
1!
1A
1B
09
1'!
0(!
0)!
0*!
0h
0j
0g
1f
1e
1d
0c
1Y
1Z
0i
1h
1j
0f
0d
1@
0Z
1i
0@
#240000
0!
0A
0B
19
#245000
1!
1A
1B
09
1*!
1c
0Y
1d
#250000
0!
0A
0B
19
#255000
1!
1A
1B
09
1)!
0*!
0e
0d
0c
1Y
1f
1e
1d
0f
#260000
0!
0A
0B
19
#265000
1!
1A
1B
09
1*!
1c
0Y
0e
0d
1f
#270000
0!
0A
0B
19
#275000
1!
1A
1B
09
1(!
0)!
0*!
1g
0f
1e
1d
0c
1Y
0h
0j
0g
1f
0d
1Z
0i
1h
1j
1@
0Z
1i
0@
#280000
0!
0A
0B
19
#285000
1!
1A
1B
09
1*!
1c
0Y
1d
#290000
0!
0A
0B
19
#295000
1!
1A
1B
09
1)!
0*!
0e
0d
0c
1Y
1g
0f
1e
1d
0h
0j
0g
1f
1Z
0i
1h
1j
1@
0Z
1i
0@
#300000
0!
0A
0B
19
#305000
1!
1A
1B
09
1*!
1c
0Y
0e
0d
1g
0f
0h
0j
1Z
0i
1@
#310000
0!
0A
0B
19
#315000
1!
1A
1B
09
0'!
0&!
0(!
0)!
0*!
1%!
1k
1h
1j
0Z
1i
0g
1f
1e
1d
0c
1Y
1l
1b
0[
0@
0l
0b
0i
1[
1@
0j
0f
0d
1m
1\
0m
0\
#320000
0!
0A
0B
19
#325000
1!
1A
1B
09
1*!
1c
0Y
1d
#330000
0!
0A
0B
19
#335000
1!
1A
1B
09
1)!
0*!
0e
0d
0c
1Y
1f
1e
1d
0f
#340000
0!
0A
0B
19
#345000
1!
1A
1B
09
1*!
1c
0Y
0e
0d
1f
#350000
0!
0A
0B
19
#355000
1!
1A
1B
09
1(!
0)!
0*!
1g
0f
1e
1d
0c
1Y
1j
0g
1f
0d
0j
#360000
0!
0A
0B
19
#365000
1!
1A
1B
09
1*!
1c
0Y
1d
#370000
0!
0A
0B
19
#375000
1!
1A
1B
09
1)!
0*!
0e
0d
0c
1Y
1g
0f
1e
1d
1j
0g
1f
0j
#380000
0!
0A
0B
19
#385000
1!
1A
1B
09
1*!
1c
0Y
0e
0d
1g
0f
1j
#390000
0!
0A
0B
19
#395000
1!
1A
1B
09
1'!
0(!
0)!
0*!
0h
0j
0g
1f
1e
1d
0c
1Y
1i
1h
1j
0f
0d
0i
#400000
0!
0A
0B
19
#405000
1!
1A
1B
09
1*!
1c
0Y
1d
#410000
0!
0A
0B
19
#415000
1!
1A
1B
09
1)!
0*!
0e
0d
0c
1Y
1f
1e
1d
0f
#420000
0!
0A
0B
19
#425000
1!
1A
1B
09
1*!
1c
0Y
0e
0d
1f
#430000
0!
0A
0B
19
#435000
1!
1A
1B
09
1(!
0)!
0*!
1g
0f
1e
1d
0c
1Y
0h
0j
0g
1f
0d
1i
1h
1j
0i
#440000
0!
0A
0B
19
#445000
1!
1A
1B
09
1*!
1c
0Y
1d
#450000
0!
0A
0B
19
#455000
1!
1A
1B
09
1)!
0*!
0e
0d
0c
1Y
1g
0f
1e
1d
0h
0j
0g
1f
1i
1h
1j
0i
#460000
0!
0A
0B
19
#465000
1!
1A
1B
09
1*!
1c
0Y
0e
0d
1g
0f
0h
0j
1i
#470000
0!
0A
0B
19
#475000
1!
1A
1B
09
0'!
1&!
0(!
0)!
0*!
1h
1j
1Z
0i
0g
1f
1e
1d
0c
1Y
0Z
1i
0[
0@
0j
0f
0d
1[
1@
1\
0\
#480000
0!
0A
0B
19
#485000
1!
1A
1B
09
1*!
1c
0Y
1d
#490000
0!
0A
0B
19
#495000
1!
1A
1B
09
1)!
0*!
0k
0e
0d
0c
1Y
1l
1b
1f
1e
1d
1m
0f
#500000
0!
0A
0B
19
#505000
1!
1A
1B
09
0&!
0)!
0%!
1n
1o
1k
0i
0d
0b
0@
1X
18
1y
1!!
0s
1p
1D
1T
1$
17
#510000
0!
0A
0B
19
#515000
1!
1A
1B
09
1*!
1c
0Y
1d
#520000
0!
0A
0B
19
#525000
1!
1A
1B
09
1)!
0*!
0e
0d
0c
1Y
1f
1e
1d
0f
#530000
0!
0A
0B
19
#535000
1!
1A
1B
09
1*!
1c
0Y
0e
0d
1f
#540000
0!
0A
0B
19
#545000
1!
1A
1B
09
1(!
0)!
0*!
1g
0f
1e
1d
0c
1Y
1j
0g
1f
0d
0j
#550000
0!
0A
0B
19
#555000
1!
1A
1B
09
1*!
1c
0Y
1d
#560000
0!
0A
0B
19
#565000
1!
1A
1B
09
1)!
0*!
0e
0d
0c
1Y
1g
0f
1e
1d
1j
0g
1f
0j
#570000
0!
0A
0B
19
#575000
1!
1A
1B
09
1*!
1c
0Y
0e
0d
1g
0f
1j
#580000
0!
0A
0B
19
#585000
1!
1A
1B
09
1'!
0(!
0)!
0*!
0h
0j
0g
1f
1e
1d
0c
1Y
1i
1h
1j
0f
0d
0i
#590000
0!
0A
0B
19
#595000
1!
1A
1B
09
1*!
1c
0Y
1d
#600000
0!
0A
0B
19
#605000
1!
1A
1B
09
1)!
0*!
0e
0d
0c
1Y
1f
1e
1d
0f
#610000
0!
0A
0B
19
#615000
1!
1A
1B
09
1*!
1c
0Y
0e
0d
1f
#620000
0!
0A
0B
19
#625000
1!
1A
1B
09
1(!
0)!
0*!
1g
0f
1e
1d
0c
1Y
0h
0j
0g
1f
0d
1i
1h
1j
0i
#630000
0!
0A
0B
19
#635000
1!
1A
1B
09
1*!
1c
0Y
1d
#640000
0!
0A
0B
19
#645000
1!
1A
1B
09
1)!
0*!
0e
0d
0c
1Y
1g
0f
1e
1d
0h
0j
0g
1f
1i
1h
1j
0i
#650000
0!
0A
0B
19
#655000
1!
1A
1B
09
1*!
1c
0Y
0e
0d
1g
0f
0h
0j
1i
#660000
0!
0A
0B
19
#665000
1!
1A
1B
09
0'!
1&!
0(!
0)!
0*!
1h
1j
1Z
0i
0g
1f
1e
1d
0c
1Y
0Z
1i
1@
0j
0f
0d
0@
#670000
0!
0A
0B
19
#675000
1!
1A
1B
09
1*!
1c
0Y
1d
#680000
0!
0A
0B
19
#685000
1!
1A
1B
09
1)!
0*!
0k
0e
0d
0c
1Y
1f
1e
1d
0f
#690000
0!
0A
0B
19
#695000
1!
1A
1B
09
1*!
1c
0Y
0e
0d
1f
#700000
0!
0A
0B
19
#705000
1!
1A
1B
09
1(!
0)!
0*!
1g
0f
1e
1d
0c
1Y
1j
0g
1f
0d
0j
#710000
0!
0A
0B
19
#715000
1!
1A
1B
09
1*!
1c
0Y
1d
#720000
0!
0A
0B
19
#725000
1!
1A
1B
09
1)!
0*!
0e
0d
0c
1Y
1g
0f
1e
1d
1j
0g
1f
0j
#730000
0!
0A
0B
19
#735000
1!
1A
1B
09
1*!
1c
0Y
0e
0d
1g
0f
1j
#740000
0!
0A
0B
19
#745000
1!
1A
1B
09
1'!
0(!
0)!
0*!
0h
0j
0g
1f
1e
1d
0c
1Y
1Z
0i
1h
1j
0f
0d
1@
0Z
1i
0@
#750000
0!
0A
0B
19
#755000
1!
1A
1B
09
1*!
1c
0Y
1d
#760000
0!
0A
0B
19
#765000
1!
1A
1B
09
1)!
0*!
0e
0d
0c
1Y
1f
1e
1d
0f
#770000
0!
0A
0B
19
#775000
1!
1A
1B
09
1*!
1c
0Y
0e
0d
1f
#780000
0!
0A
0B
19
#785000
1!
1A
1B
09
1(!
0)!
0*!
1g
0f
1e
1d
0c
1Y
0h
0j
0g
1f
0d
1Z
0i
1h
1j
1@
0Z
1i
0@
#790000
0!
0A
0B
19
#795000
1!
1A
1B
09
1*!
1c
0Y
1d
#800000
0!
0A
0B
19
#805000
1!
1A
1B
09
1)!
0*!
0e
0d
0c
1Y
1g
0f
1e
1d
0h
0j
0g
1f
1Z
0i
1h
1j
1@
0Z
1i
0@
#810000
0!
0A
0B
19
#815000
1!
1A
1B
09
1*!
1c
0Y
0e
0d
1g
0f
0h
0j
1Z
0i
1@
#820000
0!
0A
0B
19
#825000
1!
1A
1B
09
0'!
0&!
0(!
0)!
0*!
1%!
1k
1h
1j
0Z
1i
0g
1f
1e
1d
0c
1Y
0l
1b
0[
0@
1l
0b
0i
1[
1@
0j
0f
0d
0m
1\
1m
0\
#830000
0!
0A
0B
19
#835000
1!
1A
1B
09
1*!
1c
0Y
1d
#840000
0!
0A
0B
19
#845000
1!
1A
1B
09
1)!
0*!
0e
0d
0c
1Y
1f
1e
1d
0f
#850000
0!
0A
0B
19
#855000
1!
1A
1B
09
1*!
1c
0Y
0e
0d
1f
#860000
0!
0A
0B
19
#865000
1!
1A
1B
09
1(!
0)!
0*!
1g
0f
1e
1d
0c
1Y
1j
0g
1f
0d
0j
#870000
0!
0A
0B
19
#875000
1!
1A
1B
09
1*!
1c
0Y
1d
#880000
0!
0A
0B
19
#885000
1!
1A
1B
09
1)!
0*!
0e
0d
0c
1Y
1g
0f
1e
1d
1j
0g
1f
0j
#890000
0!
0A
0B
19
#895000
1!
1A
1B
09
1*!
1c
0Y
0e
0d
1g
0f
1j
#900000
0!
0A
0B
19
#905000
1!
1A
1B
09
1'!
0(!
0)!
0*!
0h
0j
0g
1f
1e
1d
0c
1Y
1i
1h
1j
0f
0d
0i
#910000
0!
0A
0B
19
#915000
1!
1A
1B
09
1*!
1c
0Y
1d
#920000
0!
0A
0B
19
#925000
1!
1A
1B
09
1)!
0*!
0e
0d
0c
1Y
1f
1e
1d
0f
#930000
0!
0A
0B
19
#935000
1!
1A
1B
09
1*!
1c
0Y
0e
0d
1f
#940000
0!
0A
0B
19
#945000
1!
1A
1B
09
1(!
0)!
0*!
1g
0f
1e
1d
0c
1Y
0h
0j
0g
1f
0d
1i
1h
1j
0i
#950000
0!
0A
0B
19
#955000
1!
1A
1B
09
1*!
1c
0Y
1d
#960000
0!
0A
0B
19
#965000
1!
1A
1B
09
1)!
0*!
0e
0d
0c
1Y
1g
0f
1e
1d
0h
0j
0g
1f
1i
1h
1j
0i
#970000
0!
0A
0B
19
#975000
1!
1A
1B
09
1*!
1c
0Y
0e
0d
1g
0f
0h
0j
1i
#980000
0!
0A
0B
19
#985000
1!
1A
1B
09
0'!
1&!
0(!
0)!
0*!
1h
1j
1Z
0i
0g
1f
1e
1d
0c
1Y
0Z
1i
0[
0@
0j
0f
0d
1[
1@
1\
0\
#990000
0!
0A
0B
19
#995000
1!
1A
1B
09
1*!
1c
0Y
1d
#1000000
0!
0A
0B
19
#1005000
1!
1A
1B
09
1)!
0*!
0k
0e
0d
0c
1Y
0l
1b
1f
1e
1d
0m
0f
#1010000
0!
0A
0B
19
#1015000
1!
1A
1B
09
0&!
0)!
0%!
0n
0o
1k
0i
0d
0b
0@
0X
08
#1020000
0!
0A
0B
19
#1025000
1!
1A
1B
09
1*!
1c
0Y
1d
#1030000
0!
0A
0B
19
#1035000
1!
1A
1B
09
1)!
0*!
0e
0d
0c
1Y
1f
1e
1d
0f
#1040000
0!
0A
0B
19
#1045000
1!
1A
1B
09
1*!
1c
0Y
0e
0d
1f
#1050000
0!
0A
0B
19
#1055000
1!
1A
1B
09
1(!
0)!
0*!
1g
0f
1e
1d
0c
1Y
1j
0g
1f
0d
0j
#1060000
0!
0A
0B
19
#1065000
1!
1A
1B
09
1*!
1c
0Y
1d
#1070000
0!
0A
0B
19
#1075000
1!
1A
1B
09
1)!
0*!
0e
0d
0c
1Y
1g
0f
1e
1d
1j
0g
1f
0j
#1080000
0!
0A
0B
19
#1085000
1!
1A
1B
09
1*!
1c
0Y
0e
0d
1g
0f
1j
#1090000
0!
0A
0B
19
#1095000
1!
1A
1B
09
1'!
0(!
0)!
0*!
0h
0j
0g
1f
1e
1d
0c
1Y
1i
1h
1j
0f
0d
0i
#1100000
0!
0A
0B
19
#1105000
1!
1A
1B
09
1*!
1c
0Y
1d
#1110000
0!
0A
0B
19
#1115000
1!
1A
1B
09
1)!
0*!
0e
0d
0c
1Y
1f
1e
1d
0f
#1120000
0!
0A
0B
19
#1125000
1!
1A
1B
09
1*!
1c
0Y
0e
0d
1f
#1130000
0!
0A
0B
19
#1135000
1!
1A
1B
09
1(!
0)!
0*!
1g
0f
1e
1d
0c
1Y
0h
0j
0g
1f
0d
1i
1h
1j
0i
#1140000
0!
0A
0B
19
#1145000
1!
1A
1B
09
1*!
1c
0Y
1d
#1150000
0!
0A
0B
19
#1155000
1!
1A
1B
09
1)!
0*!
0e
0d
0c
1Y
1g
0f
1e
1d
0h
0j
0g
1f
1i
1h
1j
0i
#1160000
0!
0A
0B
19
#1165000
1!
1A
1B
09
1*!
1c
0Y
0e
0d
1g
0f
0h
0j
1i
#1170000
0!
0A
0B
19
#1175000
1!
1A
1B
09
0'!
1&!
0(!
0)!
0*!
1h
1j
1Z
0i
0g
1f
1e
1d
0c
1Y
0Z
1i
1@
0j
0f
0d
0@
#1180000
0!
0A
0B
19
#1185000
1!
1A
1B
09
1*!
1c
0Y
1d
#1190000
0!
0A
0B
19
#1195000
1!
1A
1B
09
1)!
0*!
0k
0e
0d
0c
1Y
1f
1e
1d
0f
#1200000
0!
0A
0B
19
#1205000
1!
1A
1B
09
1*!
1c
0Y
0e
0d
1f
#1210000
0!
0A
0B
19
#1215000
1!
1A
1B
09
1(!
0)!
0*!
1g
0f
1e
1d
0c
1Y
1j
0g
1f
0d
0j
#1220000
0!
0A
0B
19
#1225000
1!
1A
1B
09
1*!
1c
0Y
1d
#1230000
0!
0A
0B
19
#1235000
1!
1A
1B
09
1)!
0*!
0e
0d
0c
1Y
1g
0f
1e
1d
1j
0g
1f
0j
#1240000
0!
0A
0B
19
#1245000
1!
1A
1B
09
1*!
1c
0Y
0e
0d
1g
0f
1j
#1250000
0!
0A
0B
19
#1255000
1!
1A
1B
09
1'!
0(!
0)!
0*!
0h
0j
0g
1f
1e
1d
0c
1Y
1Z
0i
1h
1j
0f
0d
1@
0Z
1i
0@
#1260000
0!
0A
0B
19
#1265000
1!
1A
1B
09
1*!
1c
0Y
1d
#1270000
0!
0A
0B
19
#1275000
1!
1A
1B
09
1)!
0*!
0e
0d
0c
1Y
1f
1e
1d
0f
#1280000
0!
0A
0B
19
#1285000
1!
1A
1B
09
1*!
1c
0Y
0e
0d
1f
#1290000
0!
0A
0B
19
#1295000
1!
1A
1B
09
1(!
0)!
0*!
1g
0f
1e
1d
0c
1Y
0h
0j
0g
1f
0d
1Z
0i
1h
1j
1@
0Z
1i
0@
#1300000
0!
0A
0B
19
#1305000
1!
1A
1B
09
1*!
1c
0Y
1d
#1310000
0!
0A
0B
19
#1315000
1!
1A
1B
09
1)!
0*!
0e
0d
0c
1Y
1g
0f
1e
1d
0h
0j
0g
1f
1Z
0i
1h
1j
1@
0Z
1i
0@
#1320000
0!
0A
0B
19
#1325000
1!
1A
1B
09
1*!
1c
0Y
0e
0d
1g
0f
0h
0j
1Z
0i
1@
#1330000
0!
0A
0B
19
#1335000
1!
1A
1B
09
0'!
0&!
0(!
0)!
0*!
1%!
1k
1h
1j
0Z
1i
0g
1f
1e
1d
0c
1Y
1l
1b
0[
0@
0l
0b
0i
1[
1@
0j
0f
0d
1m
1\
0m
0\
#1340000
0!
0A
0B
19
#1345000
1!
1A
1B
09
1*!
1c
0Y
1d
#1350000
0!
0A
0B
19
#1355000
1!
1A
1B
09
1)!
0*!
0e
0d
0c
1Y
1f
1e
1d
0f
#1360000
0!
0A
0B
19
#1365000
1!
1A
1B
09
1*!
1c
0Y
0e
0d
1f
#1370000
0!
0A
0B
19
#1375000
1!
1A
1B
09
1(!
0)!
0*!
1g
0f
1e
1d
0c
1Y
1j
0g
1f
0d
0j
#1380000
0!
0A
0B
19
#1385000
1!
1A
1B
09
1*!
1c
0Y
1d
#1390000
0!
0A
0B
19
#1395000
1!
1A
1B
09
1)!
0*!
0e
0d
0c
1Y
1g
0f
1e
1d
1j
0g
1f
0j
#1400000
0!
0A
0B
19
#1405000
1!
1A
1B
09
1*!
1c
0Y
0e
0d
1g
0f
1j
#1410000
0!
0A
0B
19
#1415000
1!
1A
1B
09
1'!
0(!
0)!
0*!
0h
0j
0g
1f
1e
1d
0c
1Y
1i
1h
1j
0f
0d
0i
#1420000
0!
0A
0B
19
#1425000
1!
1A
1B
09
1*!
1c
0Y
1d
#1430000
0!
0A
0B
19
#1435000
1!
1A
1B
09
1)!
0*!
0e
0d
0c
1Y
1f
1e
1d
0f
#1440000
0!
0A
0B
19
#1445000
1!
1A
1B
09
1*!
1c
0Y
0e
0d
1f
#1450000
0!
0A
0B
19
#1455000
1!
1A
1B
09
1(!
0)!
0*!
1g
0f
1e
1d
0c
1Y
0h
0j
0g
1f
0d
1i
1h
1j
0i
#1460000
0!
0A
0B
19
#1465000
1!
1A
1B
09
1*!
1c
0Y
1d
#1470000
0!
0A
0B
19
#1475000
1!
1A
1B
09
1)!
0*!
0e
0d
0c
1Y
1g
0f
1e
1d
0h
0j
0g
1f
1i
1h
1j
0i
#1480000
0!
0A
0B
19
#1485000
1!
1A
1B
09
1*!
1c
0Y
0e
0d
1g
0f
0h
0j
1i
#1490000
0!
0A
0B
19
#1495000
1!
1A
1B
09
0'!
1&!
0(!
0)!
0*!
1h
1j
1Z
0i
0g
1f
1e
1d
0c
1Y
0Z
1i
0[
0@
0j
0f
0d
1[
1@
1\
0\
#1500000
0!
0A
0B
19
#1505000
1!
1A
1B
09
1*!
1c
0Y
1d
#1510000
0!
0A
0B
19
#1515000
1!
1A
1B
09
1)!
0*!
0k
0e
0d
0c
1Y
1l
1b
1f
1e
1d
1m
0f
#1520000
0!
0A
0B
19
#1525000
1!
1A
1B
09
0&!
0)!
0%!
1n
1o
1k
0i
0d
0b
0@
1X
18
0!!
1~
1s
0T
1U
07
16
#1530000
0!
0A
0B
19
#1535000
1!
1A
1B
09
1*!
1c
0Y
1d
#1540000
0!
0A
0B
19
#1545000
1!
1A
1B
09
1)!
0*!
0e
0d
0c
1Y
1f
1e
1d
0f
#1550000
0!
0A
0B
19
#1555000
1!
1A
1B
09
1*!
1c
0Y
0e
0d
1f
#1560000
0!
0A
0B
19
#1565000
1!
1A
1B
09
1(!
0)!
0*!
1g
0f
1e
1d
0c
1Y
1j
0g
1f
0d
0j
#1570000
0!
0A
0B
19
#1575000
1!
1A
1B
09
1*!
1c
0Y
1d
#1580000
0!
0A
0B
19
#1585000
1!
1A
1B
09
1)!
0*!
0e
0d
0c
1Y
1g
0f
1e
1d
1j
0g
1f
0j
#1590000
0!
0A
0B
19
#1595000
1!
1A
1B
09
1*!
1c
0Y
0e
0d
1g
0f
1j
#1600000
0!
0A
0B
19
#1605000
1!
1A
1B
09
1'!
0(!
0)!
0*!
0h
0j
0g
1f
1e
1d
0c
1Y
1i
1h
1j
0f
0d
0i
#1610000
0!
0A
0B
19
#1615000
1!
1A
1B
09
1*!
1c
0Y
1d
#1620000
0!
0A
0B
19
#1625000
1!
1A
1B
09
1)!
0*!
0e
0d
0c
1Y
1f
1e
1d
0f
#1630000
0!
0A
0B
19
#1635000
1!
1A
1B
09
1*!
1c
0Y
0e
0d
1f
#1640000
0!
0A
0B
19
#1645000
1!
1A
1B
09
1(!
0)!
0*!
1g
0f
1e
1d
0c
1Y
0h
0j
0g
1f
0d
1i
1h
1j
0i
#1650000
0!
0A
0B
19
#1655000
1!
1A
1B
09
1*!
1c
0Y
1d
#1660000
0!
0A
0B
19
#1665000
1!
1A
1B
09
1)!
0*!
0e
0d
0c
1Y
1g
0f
1e
1d
0h
0j
0g
1f
1i
1h
1j
0i
#1670000
0!
0A
0B
19
#1675000
1!
1A
1B
09
1*!
1c
0Y
0e
0d
1g
0f
0h
0j
1i
#1680000
0!
0A
0B
19
#1685000
1!
1A
1B
09
0'!
1&!
0(!
0)!
0*!
1h
1j
1Z
0i
0g
1f
1e
1d
0c
1Y
0Z
1i
1@
0j
0f
0d
0@
#1690000
0!
0A
0B
19
#1695000
1!
1A
1B
09
1*!
1c
0Y
1d
#1700000
0!
0A
0B
19
#1705000
1!
1A
1B
09
1)!
0*!
0k
0e
0d
0c
1Y
1f
1e
1d
0f
#1710000
0!
0A
0B
19
#1715000
1!
1A
1B
09
1*!
1c
0Y
0e
0d
1f
#1720000
0!
0A
0B
19
#1725000
1!
1A
1B
09
1(!
0)!
0*!
1g
0f
1e
1d
0c
1Y
1j
0g
1f
0d
0j
#1730000
0!
0A
0B
19
#1735000
1!
1A
1B
09
1*!
1c
0Y
1d
#1740000
0!
0A
0B
19
#1745000
1!
1A
1B
09
1)!
0*!
0e
0d
0c
1Y
1g
0f
1e
1d
1j
0g
1f
0j
#1750000
0!
0A
0B
19
#1755000
1!
1A
1B
09
1*!
1c
0Y
0e
0d
1g
0f
1j
#1760000
0!
0A
0B
19
#1765000
1!
1A
1B
09
1'!
0(!
0)!
0*!
0h
0j
0g
1f
1e
1d
0c
1Y
1Z
0i
1h
1j
0f
0d
1@
0Z
1i
0@
#1770000
0!
0A
0B
19
#1775000
1!
1A
1B
09
1*!
1c
0Y
1d
#1780000
0!
0A
0B
19
#1785000
1!
1A
1B
09
1)!
0*!
0e
0d
0c
1Y
1f
1e
1d
0f
#1790000
0!
0A
0B
19
#1795000
1!
1A
1B
09
1*!
1c
0Y
0e
0d
1f
#1800000
0!
0A
0B
19
#1805000
1!
1A
1B
09
1(!
0)!
0*!
1g
0f
1e
1d
0c
1Y
0h
0j
0g
1f
0d
1Z
0i
1h
1j
1@
0Z
1i
0@
#1810000
0!
0A
0B
19
#1815000
1!
1A
1B
09
1*!
1c
0Y
1d
#1820000
0!
0A
0B
19
